^C:\USERS\НИКИТА\DESKTOP\VISUALSTUDIO\HELLOWORLD_17M\MAIN.CPP
C:\USERS\Никита\DESKTOP\VISUALSTUDIO\HELLOWORLD_17M\DEBUG\VC142.PDB
C:\USERS\Никита\DESKTOP\VISUALSTUDIO\HELLOWORLD_17M\DEBUG\VC142.IDB
C:\USERS\Никита\DESKTOP\VISUALSTUDIO\HELLOWORLD_17M\DEBUG\MAIN.OBJ
